Private College Acceptance
…
```r
pairs.panels(cc,method="pearson",hist.col="plum",density=TRUE,ellipses=TRUE )
```

<img src="Xarin_files/figure-html/pairwise scatterplot-1.png" width="100%" />
---

```r
tibble::as_tibble(cc)
```

```
## # A tibble: 777 × 9
##    X          Private  Apps Accept Enroll Top10perc Top25perc Outstate Grad.Rate
##    <chr>      <chr>   <int>  <int>  <int>     <int>     <int>    <int>     <int>
##  1 Abilene C… Yes      1660   1232    721        23        52     7440        60
##  2 Adelphi U… Yes      2186   1924    512        16        29    12280        56
##  3 Adrian Co… Yes      1428   1097    336        22        50    11250        54
##  4 Agnes Sco… Yes       417    349    137        60        89    12960        59
##  5 Alaska Pa… Yes       193    146     55        16        44     7560        15
##  6 Albertson… Yes       587    479    158        38        62    13500        55
##  7 Albertus … Yes       353    340    103        17        45    13290        63
##  8 Albion Co… Yes      1899   1720    489        37        68    13868        73
##  9 Albright … Yes      1038    839    227        30        63    15595        80
## 10 Alderson-… Yes       582    498    172        21        44    10468        52
## # ℹ 767 more rows
```
…
